<?xml version="1.0" encoding="utf-8"?>
<!-- Generator: Adobe Illustrator 21.0.0, SVG Export Plug-In . SVG Version: 6.00 Build 0)  -->
<svg version="1.1" id="Layer_1" xmlns="http://www.w3.org/2000/svg" xmlns:xlink="http://www.w3.org/1999/xlink" x="0px" y="0px"
	 viewBox="0 0 100 100" style="enable-background:new 0 0 100 100;" xml:space="preserve">
<style type="text/css">
	.st0{fill:#231F20;}
	.st1{fill:#FFFFFF;}
	.st2{fill:none;stroke:#231F20;stroke-width:1.9894;stroke-linecap:round;stroke-linejoin:round;stroke-miterlimit:10;}
	.st3{fill:none;stroke:#231F20;stroke-width:1.5;stroke-linecap:round;stroke-linejoin:round;stroke-miterlimit:10;}
</style>
<g>
	<g>
		<path class="st0" d="M74,70.3c1.1,1.1,1.1,3,0,4.1l0,0c-1.1,1.1-3,1.1-4.1,0L42.5,47.2c-1.1-1.1-1.1-3,0-4.1l0,0
			c1.1-1.1,3-1.1,4.1,0L74,70.3z"/>
	</g>
	<g>
		<path class="st1" d="M42.4,26c9.5,0,17.2,7.7,17.2,17.2c0,9.5-7.7,17.2-17.2,17.2s-17.2-7.7-17.2-17.2c0-2.1,0.4-4.1,1-5.9
			C28.6,30.7,35,26,42.4,26 M42.4,21c-9.3,0-17.7,5.9-20.9,14.6c-0.9,2.4-1.3,5-1.3,7.6c0,12.2,10,22.2,22.2,22.2
			c12.2,0,22.2-10,22.2-22.2C64.6,31,54.6,21,42.4,21L42.4,21z"/>
	</g>
	<path class="st2" d="M34.6,33"/>
	<path class="st2" d="M36.9,34.4"/>
	<g>
		<path class="st1" d="M42.4,62.1c-10.4,0-18.8-8.5-18.8-18.8c0-2.2,0.4-4.4,1.1-6.5c2.7-7.4,9.8-12.4,17.7-12.4
			c10.4,0,18.8,8.5,18.8,18.8C61.2,53.6,52.8,62.1,42.4,62.1z"/>
		<path class="st0" d="M42.4,26c9.5,0,17.2,7.7,17.2,17.2c0,9.5-7.7,17.2-17.2,17.2s-17.2-7.7-17.2-17.2c0-2.1,0.4-4.1,1-5.9
			C28.6,30.7,35,26,42.4,26 M42.4,22.7c-8.6,0-16.3,5.4-19.3,13.5c-0.8,2.3-1.2,4.6-1.2,7c0,11.3,9.2,20.5,20.5,20.5
			c11.3,0,20.5-9.2,20.5-20.5C62.9,31.9,53.7,22.7,42.4,22.7L42.4,22.7z"/>
	</g>
	<line class="st3" x1="26.5" y1="35" x2="58.2" y2="35"/>
	<line class="st3" x1="26.5" y1="51.7" x2="58.2" y2="51.7"/>
	<line class="st3" x1="25.5" y1="43.2" x2="59.5" y2="43.2"/>
	<path class="st3" d="M47.9,26.2c0,0,4.6,7.2,4.6,17.7c0,10.5-4.6,16.4-4.6,16.4"/>
	<path class="st3" d="M37.1,26.2c0,0-4.6,7.2-4.6,17.7c0,10.5,4.6,16.4,4.6,16.4"/>
	<line class="st3" x1="42.5" y1="24.7" x2="42.5" y2="61.8"/>
</g>
</svg>
