<?xml version="1.0" encoding="utf-8"?>
<!-- Generator: Adobe Illustrator 22.1.0, SVG Export Plug-In . SVG Version: 6.00 Build 0)  -->
<svg version="1.1" id="Layer_1" xmlns="http://www.w3.org/2000/svg" xmlns:xlink="http://www.w3.org/1999/xlink" x="0px" y="0px"
	 viewBox="0 0 100 100" style="enable-background:new 0 0 100 100;" xml:space="preserve">
<style type="text/css">
	.st0{fill:#FFFFFF;}
</style>
<g>
	<g>
		<rect x="69.3" y="54.9" transform="matrix(0.7158 -0.6983 0.6983 0.7158 -18.3669 66.2125)" width="5.7" height="1.5"/>
	</g>
	<g>
		<rect x="46.3" y="32.7" transform="matrix(0.7364 -0.6766 0.6766 0.7364 -11.4356 41.0985)" width="1.5" height="5"/>
	</g>
	<g>
		<path class="st0" d="M24.6,52.9l25,25c1.1,1.1,2.8,1.1,4,0l1-1c1.1-1.1,1.1-2.8,0-4l-9.5-9.5l0.1-0.1l10.2,10.2
			c1.1,1.1,2.8,1.1,4,0l1-1c1.1-1.1,1.1-2.8,0-4L50.2,58.3l0.1-0.1l11,11c1.1,1.1,2.8,1.1,4,0l1-1c1.1-1.1,1.1-2.8,0-4l-11-11
			l0.1-0.1l11.8,11.8c1.1,1.1,2.8,1.1,4,0l1-1c1.1-1.1,1.1-2.8,0-4L56.6,44.5l-2.5-2.4l-8.8,8.8c-1.1,1.1-3.2,1.1-4.3,0L40.1,50
			c-1.1-1.1-1.1-3.2,0-4.3l13-13"/>
		<path d="M51.6,79.4c-0.9,0-1.8-0.3-2.5-1l-25-25l1.1-1.1l25,25c0.8,0.8,2.1,0.8,3,0l1-1c0.8-0.8,0.8-2.1,0-3l-9.5-9.5
			c-0.3-0.3-0.3-0.8,0-1.1l0.1-0.1c0.1-0.1,0.3-0.2,0.5-0.2c0,0,0,0,0,0c0.2,0,0.4,0.1,0.5,0.2l10.2,10.2c0.8,0.8,2.1,0.8,3,0l1-1
			c0.8-0.8,0.8-2.1,0-3L49.7,58.8c-0.1-0.1-0.2-0.3-0.2-0.5s0.1-0.4,0.2-0.5l0.1-0.1c0.3-0.3,0.8-0.3,1.1,0l11,11
			c0.8,0.8,2.1,0.8,3,0l1-1c0.8-0.8,0.8-2.1,0-3l-11-11c-0.1-0.1-0.2-0.3-0.2-0.5c0-0.2,0.1-0.4,0.2-0.5l0.1-0.1
			c0.3-0.3,0.8-0.3,1.1,0l11.8,11.8c0.8,0.8,2.1,0.8,3,0l1-1c0.8-0.8,0.8-2.1,0-3L54.1,43.1l-8.3,8.3c-1.4,1.4-4,1.4-5.4,0l-0.9-0.9
			c-1.4-1.4-1.4-4,0-5.4l13-13l1.1,1.1l-13,13c-0.8,0.8-0.8,2.4,0,3.2l0.9,0.9c0.8,0.8,2.4,0.8,3.2,0l8.8-8.8c0.3-0.3,0.8-0.3,1,0
			l2.5,2.4l15.6,15.4c1.4,1.5,1.4,3.7,0,5.1l-1,1c-1.1,1-2.6,1.3-3.9,0.8c0,0.9-0.3,1.8-1,2.5l-1,1c-1.1,1-2.6,1.3-3.9,0.8
			c0,0.9-0.3,1.8-1,2.5l-1,1c-1.1,1-2.5,1.3-3.8,0.8c0,0.9-0.3,1.9-1,2.6l-1,1C53.4,79.1,52.5,79.4,51.6,79.4z"/>
	</g>
	<g>
		<path class="st0" d="M43.8,72.1c1.1-1.1,3.2-1.1,4.3,0L49,73c1.1,1.1,1.1,3.2,0,4.3l-0.9,0.9c-1.1,1.1-3.2,1.1-4.3,0l-0.9-0.9
			c-1.1-1.1-1.1-3.2,0-4.3L43.8,72.1z"/>
		<path d="M46,79.8c-1,0-2-0.4-2.7-1.1l-0.9-0.9c-0.7-0.7-1-1.6-1-2.7s0.4-2,1-2.7l0.9-0.9c0.7-0.7,1.6-1,2.7-1c1,0,2,0.4,2.7,1
			l0.9,0.9c1.4,1.4,1.4,4,0,5.4l-0.9,0.9C47.9,79.4,47,79.8,46,79.8z M46,72c-0.6,0-1.2,0.2-1.6,0.6l0,0l-0.9,0.9
			c-0.4,0.4-0.6,1-0.6,1.6s0.2,1.2,0.6,1.6l0.9,0.9c0.8,0.8,2.4,0.8,3.2,0l0.9-0.9c0.8-0.8,0.8-2.4,0-3.2l-0.9-0.9
			C47.2,72.2,46.6,72,46,72z"/>
	</g>
	<g>
		<path class="st0" d="M38.9,67.1c1.1-1.1,3.2-1.1,4.3,0l0.9,0.9c1.1,1.1,1.1,3.2,0,4.3l-0.9,0.8c-1.1,1.1-3.2,1.1-4.3,0L38,72.2
			c-1.1-1.1-1.1-3.2,0-4.3L38.9,67.1z"/>
		<path d="M41.1,74.7c-1,0-2-0.4-2.7-1.1l-0.9-0.9c-0.7-0.7-1-1.6-1-2.7c0-1,0.4-2,1-2.7l0.9-0.8c0.7-0.7,1.6-1,2.7-1
			c1,0,2,0.4,2.7,1l0.9,0.9c0.7,0.7,1,1.6,1,2.7s-0.4,2-1,2.7l-0.9,0.8C43,74.3,42.1,74.7,41.1,74.7z M41.1,67
			c-0.6,0-1.2,0.2-1.6,0.6c0,0,0,0,0,0l-0.9,0.8c-0.4,0.4-0.6,0.9-0.6,1.6c0,0.6,0.2,1.2,0.6,1.6l0.9,0.9c0.8,0.8,2.4,0.8,3.2,0
			l0.9-0.8c0.4-0.4,0.6-0.9,0.6-1.6s-0.2-1.2-0.6-1.6l-0.9-0.9C42.3,67.2,41.7,67,41.1,67z"/>
	</g>
	<g>
		<path class="st0" d="M33.8,62.2c1.1-1.1,3.2-1.1,4.3,0l0.9,0.9c1.1,1.1,1.1,3.2,0,4.3l-0.9,0.9c-1.1,1.1-3.2,1.1-4.3,0l-0.8-1
			c-1.1-1.1-1.1-3.2,0-4.3L33.8,62.2z"/>
		<path d="M36,69.8c-1,0-2-0.4-2.7-1l-0.9-1.1c-0.6-0.6-1-1.6-1-2.6s0.4-2,1-2.7l0.8-0.8l0,0c1.4-1.4,4-1.4,5.4,0l0.9,0.9
			c1.4,1.4,1.4,4,0,5.4l-0.9,0.9C38,69.5,37,69.8,36,69.8z M34.3,62.7l-0.8,0.8c-0.4,0.4-0.6,1-0.6,1.6s0.2,1.2,0.6,1.6l0.9,1.1
			c0.3,0.3,0.9,0.5,1.6,0.5s1.2-0.2,1.6-0.6l0.9-0.9c0.8-0.8,0.8-2.4,0-3.2l-0.9-0.9C36.8,61.9,35.2,61.9,34.3,62.7L34.3,62.7z"/>
	</g>
	<g>
		<path class="st0" d="M28.8,57.1c1.1-1.1,3.2-1.1,4.3,0L34,58c1.1,1.1,1.1,3.2,0,4.3l-0.9,0.9c-1.1,1.1-3.2,1.1-4.3,0l-0.9-0.9
			c-1.1-1.1-1.1-3.2,0-4.3L28.8,57.1z"/>
		<path d="M31,64.8c-1,0-2-0.4-2.7-1.1l-0.9-0.9c-0.7-0.7-1-1.6-1-2.7s0.4-2,1-2.7l0.9-0.9c0.7-0.7,1.6-1,2.7-1c1,0,2,0.4,2.7,1
			l0.9,0.9c1.4,1.4,1.4,4,0,5.4l-0.9,0.9C32.9,64.4,32,64.8,31,64.8z M31,57c-0.6,0-1.2,0.2-1.6,0.6l0,0l-0.9,0.9
			c-0.4,0.4-0.6,1-0.6,1.6s0.2,1.2,0.6,1.6l0.9,0.9c0.8,0.8,2.4,0.8,3.2,0l0.9-0.9c0.8-0.8,0.8-2.4,0-3.2l-0.9-0.9
			C32.2,57.2,31.6,57,31,57z"/>
	</g>
	<g>
		
			<rect x="64.5" y="21.2" transform="matrix(0.7071 -0.7071 0.7071 0.7071 -5.7739 60.2724)" class="st0" width="10.8" height="31.9"/>
		<path d="M77.3,54c-0.5,0-0.9-0.2-1.2-0.5L53.5,30.9c-0.7-0.7-0.7-1.8,0-2.5l7.6-7.6c0.7-0.7,1.8-0.7,2.5,0l22.6,22.6
			c0.7,0.7,0.7,1.8,0,2.5l-7.6,7.6C78.2,53.8,77.8,54,77.3,54z M57.3,29.6l20.1,20.1l5.1-5.1L62.4,24.5L57.3,29.6z"/>
	</g>
	<g>
		
			<rect x="14.2" y="31.9" transform="matrix(0.7071 -0.7071 0.7071 0.7071 -17.5853 32.1291)" class="st0" width="31.5" height="10.8"/>
		<path d="M22.7,54c-0.5,0-0.9-0.2-1.2-0.5l-7.6-7.6c-0.3-0.3-0.5-0.8-0.5-1.2s0.2-0.9,0.5-1.2l22.3-22.3c0.7-0.7,1.8-0.7,2.5,0
			l7.6,7.6c0.3,0.3,0.5,0.8,0.5,1.2s-0.2,0.9-0.5,1.2L23.9,53.5C23.6,53.8,23.1,54,22.7,54z M17.5,44.6l5.1,5.1L42.5,30l-5.1-5.1
			L17.5,44.6z"/>
	</g>
</g>
</svg>
