<?xml version="1.0" encoding="utf-8"?>
<!-- Generator: Adobe Illustrator 22.1.0, SVG Export Plug-In . SVG Version: 6.00 Build 0)  -->
<svg version="1.1" id="Layer_1" xmlns="http://www.w3.org/2000/svg" xmlns:xlink="http://www.w3.org/1999/xlink" x="0px" y="0px"
	 viewBox="0 0 100 100" style="enable-background:new 0 0 100 100;" xml:space="preserve">
<style type="text/css">
	.st0{fill:#FFFFFF;}
	.st1{fill:#29AFA9;}
</style>
<rect x="47.9" y="25.4" class="st0" width="4.3" height="7.9"/>
<path class="st0" d="M53.7,34.8h-7.3V23.9h7.3V34.8z M49.4,31.8h1.3v-4.9h-1.3V31.8z"/>
<rect x="38.1" y="28.2" class="st1" width="23.8" height="7.2"/>
<path class="st0" d="M62.4,35.9H37.6v-8.2h24.8V35.9z M38.6,34.9h22.8v-6.2H38.6V34.9z"/>
<path class="st0" d="M83.8,67c0-18.6-15.1-33.7-33.7-33.7S16.4,48.4,16.4,67"/>
<path class="st0" d="M85.6,67H82c0-17.6-14.3-31.9-31.9-31.9S18.2,49.4,18.2,67h-3.5c0-19.6,15.9-35.5,35.5-35.5
	C69.7,31.5,85.6,47.4,85.6,67z"/>
<path class="st1" d="M83.8,67c0-18.6-15.1-33.7-33.7-33.7S16.4,48.4,16.4,67"/>
<path class="st0" d="M85.6,67H82c0-17.6-14.3-31.9-31.9-31.9S18.2,49.4,18.2,67h-3.5c0-19.6,15.9-35.5,35.5-35.5
	C69.7,31.5,85.6,47.4,85.6,67z"/>
<path class="st0" d="M44.9,42.8c-6.2,1.6-11.5,5.3-15.1,10.4"/>
<path class="st0" d="M31,54.1l-2.5-1.7c3.8-5.4,9.5-9.3,16-11l0.8,2.9C39.5,45.7,34.4,49.2,31,54.1z"/>
<rect x="11.8" y="63.1" class="st1" width="76.5" height="7.2"/>
<path class="st0" d="M88.8,70.8H11.3v-8.2h77.5V70.8z M12.3,69.8h75.5v-6.2H12.3V69.8z"/>
<rect x="11.8" y="67.7" class="st1" width="76.5" height="6.9"/>
<path class="st0" d="M88.3,76.2H11.8c-0.9,0-1.6-0.7-1.6-1.7v-6.9c0-0.9,0.7-1.7,1.6-1.7h76.5c0.9,0,1.7,0.7,1.7,1.7v6.9
	C90,75.5,89.2,76.2,88.3,76.2z M13.4,72.9h73.2v-3.6H13.4V72.9z"/>
</svg>
