<?xml version="1.0" encoding="utf-8"?>
<!-- Generator: Adobe Illustrator 22.1.0, SVG Export Plug-In . SVG Version: 6.00 Build 0)  -->
<svg version="1.1" id="Layer_1" xmlns="http://www.w3.org/2000/svg" xmlns:xlink="http://www.w3.org/1999/xlink" x="0px" y="0px"
	 viewBox="0 0 100 100" style="enable-background:new 0 0 100 100;" xml:space="preserve">
<style type="text/css">
	.st0{fill:#FFFFFF;}
	.st1{fill:#231F20;}
</style>
<g>
	<g>
		<path class="st0" d="M16.7,79.6c0,0-7.8-4.6,3.4-16c11.1-11.4,23.4-26.4,23-38.5l25.9-10L82.8,36"/>
		<path class="st1" d="M15.8,81.1c-0.1-0.1-2.9-1.8-3.4-5.5c-0.5-3.9,1.7-8.3,6.5-13.2c15.2-15.6,22.8-28.2,22.5-37.2
			c0-0.7,0.4-1.4,1.1-1.7l25.9-10c0.8-0.3,1.7,0,2.1,0.7L84.3,35L81.3,37l-13-19.7l-23.4,9.1c-0.3,10-8,22.6-23.5,38.5
			c-5,5-5.7,8.4-5.5,10.2c0.2,2,1.7,3,1.8,3L15.8,81.1z"/>
	</g>
	<g>
		<rect x="10.9" y="57.5" transform="matrix(0.834 -0.5518 0.5518 0.834 -24.9017 38.1165)" class="st0" width="80" height="5.8"/>
		<path class="st1" d="M19.1,86.7c-0.1,0-0.2,0-0.4,0c-0.5-0.1-0.9-0.4-1.1-0.8l-3.2-4.8c-0.5-0.8-0.3-1.9,0.5-2.4l66.7-44.1
			c0.4-0.3,0.9-0.4,1.3-0.3c0.5,0.1,0.9,0.4,1.1,0.8l3.2,4.8c0.5,0.8,0.3,1.9-0.5,2.4L20.1,86.4C19.8,86.6,19.5,86.7,19.1,86.7z
			 M18.4,80.6l1.3,1.9l63.8-42.2l-1.3-1.9L18.4,80.6z"/>
	</g>
	<g>
		<path class="st1" d="M23.3,67.6c-0.2,0-0.4-0.1-0.5-0.2l-3.2-3.1l1.1-1.1l2.6,2.6c17-17.5,25-31.4,24.6-42.6l0.3,0l0.2-0.9
			l0.5,0.1c0.4,0.1,0.6,0.4,0.6,0.7c0.4,11.7-8,26.2-25.6,44.3C23.7,67.5,23.5,67.6,23.3,67.6z"/>
	</g>
	<g>
		<path class="st1" d="M67.5,30.6c-1.3,0-2.5-0.6-3.2-1.7l-6.4-9.7l1.3-0.9l6.4,9.7c0.7,1,2.1,1.3,3.1,0.7l5.9-3.9l0.9,1.3L69.6,30
			C69,30.4,68.3,30.6,67.5,30.6z"/>
	</g>
	<g>
		
			<rect x="26.7" y="56.7" transform="matrix(0.5812 -0.8137 0.8137 0.5812 -36.3928 46.9811)" class="st1" width="1.6" height="4.3"/>
	</g>
	<g>
		
			<rect x="31.2" y="51.5" transform="matrix(0.5491 -0.8357 0.8357 0.5491 -30.3485 50.845)" class="st1" width="1.6" height="4.2"/>
	</g>
	<g>
		<rect x="36" y="46.2" transform="matrix(0.5666 -0.824 0.824 0.5666 -23.685 51.1697)" class="st1" width="1.6" height="3.9"/>
	</g>
	<g>
		<rect x="39.3" y="40" transform="matrix(0.5967 -0.8025 0.8025 0.5967 -17.9124 49.2588)" class="st1" width="1.6" height="4.9"/>
	</g>
	<g>
		<rect x="42.4" y="34" transform="matrix(0.3401 -0.9404 0.9404 0.3401 -5.8017 64.6325)" class="st1" width="1.6" height="5"/>
	</g>
	<g>
		<rect x="44.3" y="28.4" transform="matrix(0.2517 -0.9678 0.9678 0.2517 3.7954 66.8085)" class="st1" width="1.6" height="5.2"/>
	</g>
</g>
</svg>
