<?xml version="1.0" encoding="utf-8"?>
<!-- Generator: Adobe Illustrator 22.1.0, SVG Export Plug-In . SVG Version: 6.00 Build 0)  -->
<svg version="1.1" id="Layer_1" xmlns="http://www.w3.org/2000/svg" xmlns:xlink="http://www.w3.org/1999/xlink" x="0px" y="0px"
	 viewBox="0 0 100 100" style="enable-background:new 0 0 100 100;" xml:space="preserve">
<style type="text/css">
	.st0{fill:#FFFFFF;}
	.st1{fill:none;stroke:#231F20;stroke-width:1.9894;stroke-linecap:round;stroke-linejoin:round;stroke-miterlimit:10;}
	.st2{fill:#231F20;}
</style>
<g>
	<g>
		<g>
			<path class="st0" d="M49.7,21.4c13.6,0,24.6,11,24.6,24.6s-11,24.6-24.6,24.6S25,59.6,25,46c0-3.1,0.6-5.9,1.5-8.5
				C29.9,28.1,39,21.4,49.7,21.4 M49.7,14.2c-13.4,0-25.4,8.5-30,21c-1.2,3.4-1.8,7.1-1.8,10.9C17.9,63.6,32.2,78,49.8,78
				c17.5,0,31.9-14.3,31.9-31.9S67.3,14.2,49.7,14.2L49.7,14.2z"/>
		</g>
	</g>
	<g>
		<path class="st1" d="M38.5,31.4"/>
	</g>
	<g>
		<path class="st1" d="M41.8,33.4"/>
	</g>
	<g>
		<g>
			<path class="st0" d="M49.7,73.2c-14.9,0-26.9-12.1-26.9-27c0-3.2,0.6-6.4,1.6-9.3C28.2,26.2,38.4,19,49.8,19c15,0,27,12.1,27,27
				C76.7,61,64.6,73.2,49.7,73.2z"/>
		</g>
		<g>
			<path class="st2" d="M49.7,21.4c13.6,0,24.6,11,24.6,24.6s-11,24.6-24.6,24.6S25,59.6,25,46c0-3.1,0.6-5.9,1.5-8.5
				C29.9,28.1,39,21.4,49.7,21.4 M49.7,16.6C37.3,16.6,26.3,24.4,22,36c-1.1,3.3-1.7,6.6-1.7,10.1c0,16.2,13.2,29.4,29.4,29.4
				s29.4-13.2,29.4-29.4S65.9,16.6,49.7,16.6L49.7,16.6z"/>
		</g>
	</g>
	<g>
		<path class="st2" d="M72.4,35H26.8c-0.4,0-0.8-0.3-0.8-0.8s0.3-0.8,0.8-0.8h45.6c0.4,0,0.8,0.3,0.8,0.8S72.8,35,72.4,35z"/>
	</g>
	<g>
		<path class="st2" d="M72.4,59H26.8c-0.4,0-0.8-0.3-0.8-0.8s0.3-0.8,0.8-0.8h45.6c0.4,0,0.8,0.3,0.8,0.8S72.8,59,72.4,59z"/>
	</g>
	<g>
		<path class="st2" d="M74.3,46.8H25.5c-0.4,0-0.8-0.3-0.8-0.8s0.3-0.8,0.8-0.8h48.8c0.4,0,0.8,0.3,0.8,0.8S74.7,46.8,74.3,46.8z"/>
	</g>
	<g>
		<path class="st2" d="M57.5,71.2c-0.2,0-0.3-0.1-0.5-0.2c-0.3-0.3-0.4-0.7-0.1-1.1c0.1-0.1,6.4-8.4,6.4-23c0-14.7-6.4-24.9-6.5-25
			c-0.2-0.3-0.1-0.8,0.2-1c0.3-0.2,0.8-0.1,1,0.2c0.3,0.4,6.7,10.7,6.7,25.8c0,15.2-6.5,23.6-6.8,24C57.9,71.2,57.7,71.2,57.5,71.2z
			"/>
	</g>
	<g>
		<path class="st2" d="M42.1,71.2c-0.2,0-0.4-0.1-0.6-0.3c-0.3-0.4-6.8-8.8-6.8-24c0-15.1,6.4-25.4,6.7-25.8c0.2-0.3,0.7-0.5,1-0.2
			c0.3,0.2,0.5,0.7,0.2,1c-0.1,0.1-6.5,10.3-6.5,25c0,14.7,6.4,23,6.4,23c0.3,0.3,0.2,0.8-0.1,1.1C42.4,71.2,42.3,71.2,42.1,71.2z"
			/>
	</g>
	<g>
		<path class="st2" d="M49.9,73.5c-0.4,0-0.8-0.3-0.8-0.8V19.5c0-0.4,0.3-0.8,0.8-0.8s0.8,0.3,0.8,0.8v53.2
			C50.6,73.1,50.3,73.5,49.9,73.5z"/>
	</g>
	<g>
		<g>
			<path class="st2" d="M32.3,80.7l-15.6-8c-0.2-0.1-0.4-0.4-0.4-0.6l-1.6-23.2l1.5-0.1l1.6,22.8l15.2,7.8L32.3,80.7z"/>
		</g>
		<g>
			<path class="st2" d="M22.1,67l-1.2-18.2c0-0.8-0.3-1.5-0.8-2c-0.5-0.4-1-0.6-1.6-0.6c-0.6,0-1.1,0.3-1.3,0.6
				c-0.5,0.5-0.8,1.4-0.8,2.2l0.6,10.8l-1.5,0.1l-0.6-10.8c-0.1-1.2,0.4-2.5,1.2-3.3c0.6-0.7,1.5-1.1,2.4-1.1c0.9-0.1,1.9,0.3,2.6,1
				c0.8,0.8,1.3,1.9,1.3,3L23.5,67L22.1,67z"/>
		</g>
		<g>
			<path class="st0" d="M35,73.3l-9.6-4.9c-1.7-0.9-2.4-2.7-1.7-4.3l0,0c0.7-1.5,2.7-2,4.4-1.1l9.6,4.9l1.8,1.1l5,16.8"/>
			<path class="st2" d="M43.8,86l-4.9-16.5l-1.6-1l-9.5-4.9c-0.7-0.4-1.5-0.5-2.2-0.2c-0.5,0.2-0.9,0.5-1.1,1
				c-0.5,1.2,0,2.6,1.4,3.3l9.6,4.9L34.7,74l-9.6-4.9c-2.1-1.1-2.9-3.3-2-5.3c0.4-0.9,1.1-1.5,2-1.8c1.1-0.4,2.3-0.2,3.4,0.3
				l9.6,4.9l1.9,1.1c0.2,0.1,0.3,0.2,0.3,0.4l5,16.8L43.8,86z"/>
		</g>
	</g>
	<g>
		<g>
			<path class="st2" d="M67.7,80.7l-0.7-1.3l15.2-7.8l1.6-22.8l1.5,0.1l-1.6,23.2c0,0.3-0.2,0.5-0.4,0.6L67.7,80.7z"/>
		</g>
		<g>
			<path class="st2" d="M77.9,67L76.5,67l1.2-18.2c0-1.1,0.5-2.2,1.3-3c0.8-0.7,1.7-1.1,2.7-1c0,0,0,0,0,0c0.8,0,1.7,0.4,2.3,1.1
				c0.8,0.9,1.2,2.1,1.2,3.3l-0.6,10.8l-1.5-0.1l0.6-10.8c0-0.8-0.2-1.7-0.8-2.2c-0.3-0.3-0.7-0.6-1.3-0.6c-0.6,0-1.1,0.2-1.6,0.6
				c-0.5,0.5-0.8,1.2-0.8,1.9L77.9,67z"/>
		</g>
		<g>
			<path class="st0" d="M65,73.3l9.6-4.9c1.7-0.9,2.4-2.7,1.7-4.3l0,0c-0.7-1.5-2.7-2-4.4-1.1l-9.6,4.9L60.4,69l-5,16.8"/>
			<path class="st2" d="M56.1,86l-1.4-0.4l5-16.8c0.1-0.2,0.2-0.3,0.3-0.4l1.9-1.1l9.6-4.9c1.1-0.6,2.3-0.7,3.4-0.3
				c0.9,0.3,1.6,0.9,2,1.8c0.9,2,0,4.2-2,5.3L65.3,74l-0.7-1.3l9.6-4.9c1.3-0.7,1.9-2.1,1.4-3.3c-0.2-0.4-0.6-0.8-1.1-1
				c-0.7-0.2-1.5-0.1-2.2,0.2l-9.6,4.9L61,69.5L56.1,86z"/>
		</g>
	</g>
</g>
</svg>
